{
   "abstract" : "build log hardening check, checks build logs for missing hardening flags",
   "author" : [
      "Simon Ruderich <simon@ruderich.org>"
   ],
   "dynamic_config" : 1,
   "generated_by" : "Module::Build version 0.4231",
   "license" : [
      "gpl_1"
   ],
   "meta-spec" : {
      "url" : "http://search.cpan.org/perldoc?CPAN::Meta::Spec",
      "version" : 2
   },
   "name" : "blhc",
   "prereqs" : {
      "configure" : {
         "requires" : {
            "Module::Build" : "0"
         }
      },
      "runtime" : {
         "requires" : {
            "Dpkg::Arch" : "0",
            "Dpkg::Version" : "0",
            "Getopt::Long" : "0",
            "Pod::Usage" : "0",
            "Term::ANSIColor" : "2.01",
            "Text::ParseWords" : "0"
         }
      }
   },
   "release_status" : "stable",
   "resources" : {
      "license" : [
         "http://www.gnu.org/licenses/old-licenses/gpl-1.0.txt"
      ]
   },
   "version" : "0.13",
   "x_serialization_backend" : "JSON::PP version 4.04"
}
